{
    "serverPath": "/var/www/html/vendor/atomjump/loop-server/",
    "apiKey": "Android Legacy (No longer used). E.g. AIzaSyD8TEjhUQDDUQirNIVMdVaHPsnLxt-ygjc",
    "staging": true,
    "iosAppLinkLegacy": "https://itunes.apple.com/us/app/atomjump-messaging/id1153387200?ls=1&mt=8",
    "iosAppLink": "https://app.atomjump.com",
    "streamingAppLink": "https://app.atomjump.com",
    "androidAppLinkLegacy": "https://play.google.com/store/apps/details?id=com.atomjump.messaging",
    "androidAppLink": "https://app.atomjump.com",
    "androidNotifications": {
    	"use": false,
    	"apiKey": "AIzaSyD8TEjhUQDDUQirNIVMdVaHPsnLxt-ygjc"
    },
    "iosNotifications": {
    	"use": false,
    	"apiKeyFile": "pushcert.pem"    
    },
    "atomjumpNotifications": {
    	"use": false,
    	"serverPool": {
    	},
    	"countryServerResidingIn": {
    		"NZ" : "New Zealand",
    		"US" : "New Zealand",
    		"Default": "New Zealand"    	
    	},
    	"notifyAdminWhenLoadAbove": 80    
    },
    "privacyPolicyLink": "https://atomjump.com/privacy.php",
	"msgs": { 
     "en":{
        	"getPopupNotifications": "Get popup notifications:",
        	"privateServerNote": "Note: Please set the 'Private Server' in your app login screen as:",
         	"notLoggedIn": "<strong>Registration Unsuccessful</strong>. Please try again.",
        	"backHome": "Messaging Home",
        	"openSetup": "Open Setup Forum",
   	       	"returnToApp": "Return to App",
        	"appDeregistered": "Your app is now deregistered to [server]. You will only receive email notifications.",
        	"appDeregisteredMulti": "Your app is now deregistered to [server]. You have [devices] devices still registered.",
        	"deregister": "Deregister",
        	"deregisterFully": "Deregister (use email notifications)",
        	"appRegistered": "Your app is now registered to [server] with the email [email]. If there is a group password on this forum you may still need to toggle the ear to green <img src='../../images/ear.svg' width='30' height='30'> within the forum to listen for messages.",
        	"mustBeConfirmed": "Sorry, you will need to click the link in your activation email before you can log in to your account. We have sent another email with this link. If you are having trouble receiving this email, please get in touch with us.",
        	"signUp": "Sign Up",
        	"orSignIn": "Or sign in.",
        	"signAndPair": "Sign Up and Pair",
        	"completePairing": "Complete Registration",
        	"privacyPolicy": "Privacy Policy",
        	"wrongApp": "Sorry this server does not support your app's current messages style. Please try a different type of app e.g. the streaming <a target='_blank' href='[STREAMINGAPPLINK]'>browser app</a>."         	
    },
	"es":{
         "getPopupNotifications": "Obtener notificaciones emergentes:",
         "privateServerNote": "Nota: Configure el 'Servidor privado' en la pantalla de inicio de sesión de su aplicación como:",
         "notLoggedIn": "<strong>Registro fallido</strong>. Vuelve a intentarlo.",
         "backHome": "Inicio de mensajes",
         "openSetup": "Abrir Foro de Configuración",
    	 "returnToApp": "Volver a la aplicación",
         "appDeregistered": "Tu aplicación ya no está registrada en [server]. Solo recibirás notificaciones por correo electrónico",
         "appDeregisteredMulti": "Su aplicación ya no está registrada en [server]. Aún tiene dispositivos [devices] registrados",
         "deregister": "darse de baja",
         "deregisterFully": "Cancelar registro (usar notificaciones por correo electrónico)",
         "appRegistered": "Su aplicación ahora está registrada en [server] con el correo electrónico [email]. Si hay una contraseña de grupo en este foro, es posible que deba cambiar la oreja a verde <img src='../../images/ear.svg' width='30' height='30'> dentro del foro para escuchar los mensajes.",
         "mustBeConfirmed": "Lo sentimos, deberá hacer clic en el enlace de su correo electrónico de activación antes de poder iniciar sesión en su cuenta. Hemos enviado otro correo electrónico con este enlace. Si tiene problemas para recibir este correo electrónico, comuníquese con a nosotros.",
         "signUp": "Registrarse",
         "orSignIn": "O iniciar sesión.",
         "signAndPair": "Registrarse y emparejarse",
         "completePairing": "Registro completo",
         "privacyPolicy": "Política de Privacidad",
         "wrongApp": "Lo siento, este servidor no es compatible con el estilo de mensajes actual de su aplicación. Intente con otro tipo de aplicación, por ejemplo, la <a target='_blank' href='[STREAMINGAPPLINK]'>aplicación de navegador</a> de transmisión"
    },
	"ch":{
         "getPopupNotifications": "获取弹出通知：",
         "privateServerNote": "注意：请在您的应用登录屏幕中将'私人服务器'设置为：",
         "notLoggedIn": "<strong>注册失败</strong>。请重试。",
         "backHome": "消息主页",
         "openSetup": "打开设置论坛",
    	 "returnToApp": "返回应用",
         "appDeregistered": "您的应用程序现已注销到 [server]。您将只会收到电子邮件通知。",
         "appDeregisteredMulti": "您的应用程序现已注销到 [server]。您的 [devices] 设备仍处于注册状态。",
         "deregister": "注销",
         "deregisterFully": "取消注册（使用电子邮件通知）",
         "appRegistered": "您的应用程序现已通过电子邮件 [email] 注册到 [server]。如果此论坛上有群组密码，您可能仍需要将耳朵切换为绿色 <img src='../../images/ear.svg' width='30' height='30'> 在论坛内监听消息。",
         "mustBeConfirmed": "抱歉，您需要先点击激活邮件中的链接才能登录您的帐户。我们已经发送了另一封包含此链接的邮件。如果您在接收这封邮件时遇到问题，请联系 我们。",
         "signUp": "注册",
         "orSignIn": "或者登录。",
         "signAndPair": "注册并配对",
         "completePairing": "完成注册",
         "privacyPolicy": "隐私政策",
         "wrongApp": "抱歉，此服务器不支持您应用的当前消息样式。请尝试不同类型的应用，例如流式传输<a target='_blank' href='[STREAMINGAPPLINK]'>浏览器应用</a>。"
    },
	"cht":{
         "getPopupNotifications": "獲取彈出通知：",
         "privateServerNote": "注意：請在您的應用登錄屏幕中將'私人服務器'設置為：",
         "notLoggedIn": "<strong>註冊失敗</strong>。請重試。",
         "backHome": "消息主頁",
         "openSetup": "打開設置論壇",
    	 "returnToApp": "返回應用",
         "appDeregistered": "您的應用程序現已註銷到 [server]。您將只會收到電子郵件通知。",
         "appDeregisteredMulti": "您的應用程序現已註銷到 [server]。您的 [devices] 設備仍處於註冊狀態。",
         "deregister": "註銷",
         "deregisterFully": "取消註冊（使用電子郵件通知）",
         "appRegistered": "您的應用程序現已通過電子郵件 [email] 註冊到 [server]。如果此論壇上有群組密碼，您可能仍需要將耳朵切換為綠色 <img src='../../images/ear.svg' width='30' height='30'> 在論壇內監聽消息。",
         "mustBeConfirmed": "抱歉，您需要先點擊激活電子郵件中的鏈接才能登錄您的帳戶。我們已經發送了另一封包含此鏈接的電子郵件。如果您在接收這封電子郵件時遇到問題，請聯繫 我們。",
         "signUp": "註冊",
         "orSignIn": "或者登錄。",
         "signAndPair": "註冊並配對",
         "completePairing": "完成註冊",
         "privacyPolicy": "隱私政策",
         "wrongApp": "抱歉，此服務器不支持您應用的當前消息樣式。請嘗試不同類型的應用，例如流式傳輸<a target='_blank' href='[STREAMINGAPPLINK]'>瀏覽器應用</a>。"
    },
	"fr": {
         "getPopupNotifications": "Recevoir les notifications contextuelles :",
         "privateServerNote": "Remarque : Veuillez définir le 'Serveur privé' dans l'écran de connexion de votre application comme :",
         "notLoggedIn": "<strong>Échec de l'inscription</strong>. Veuillez réessayer.",
         "backHome": "Accueil de messagerie",
         "openSetup": "Ouvrir le forum de configuration",
    	 "returnToApp": "Revenir à l'application",
         "appDeregistered": "Votre application est maintenant désenregistrée sur [server]. Vous ne recevrez que des notifications par e-mail.",
         "appDeregisteredMulti": "Votre application est maintenant désenregistrée sur [server]. Vous avez encore des appareils [devices] enregistrés.",
         "deregister": "Se désinscrire",
         "deregisterFully": "Se désinscrire (utiliser les notifications par e-mail)",
         "appRegistered": "Votre application est maintenant enregistrée sur [server] avec l'e-mail [email]. S'il existe un mot de passe de groupe sur ce forum, vous devrez peut-être encore passer l'oreille au vert <img src='../../images/ear.svg' width='30' height='30'> dans le forum pour écouter les messages.",
         "mustBeConfirmed": "Désolé, vous devrez cliquer sur le lien dans votre e-mail d'activation avant de pouvoir vous connecter à votre compte. Nous avons envoyé un autre e-mail avec ce lien. Si vous rencontrez des difficultés pour recevoir cet e-mail, veuillez contacter nous.",
         "signUp": "S'inscrire",
         "orSignIn": "Ou se connecter.",
         "signAndPair": "Inscrivez-vous et appairez",
         "completePairing": "Compléter l'enregistrement",
         "privacyPolicy": "Politique de confidentialité",
         "wrongApp": "Désolé, ce serveur ne prend pas en charge le style de messages actuel de votre application. Veuillez essayer un autre type d'application, par exemple l'<a target='_blank' href='[STREAMINGAPPLINK]'>application de navigateur</a> en streaming."
    },
 	"de": {
         "getPopupNotifications": "Popup-Benachrichtigungen erhalten:",
         "privateServerNote": "Hinweis: Bitte stellen Sie den 'Privaten Server' in Ihrem App-Anmeldebildschirm wie folgt ein:",
         "notLoggedIn": "<strong>Registrierung fehlgeschlagen</strong>. Bitte versuchen Sie es erneut.",
         "backHome": "Mitteilung nach Hause",
         "openSetup": "Setup-Forum öffnen",
    	 "returnToApp": "Zur App zurückkehren",
         "appDeregistered": "Ihre App ist jetzt auf [server] abgemeldet. Sie erhalten nur E-Mail-Benachrichtigungen.",
         "appDeregisteredMulti": "Ihre App ist jetzt bei [server] deregistriert. Sie haben noch [devices] Geräte registriert.",
         "deregister": "abmelden",
         "deregisterFully": "Abmelden (E-Mail-Benachrichtigungen verwenden)",
         "appRegistered": "Ihre App ist jetzt mit der E-Mail-Adresse [email] bei [server] registriert. Wenn es in diesem Forum ein Gruppenpasswort gibt, müssen Sie das Ohr möglicherweise noch auf Grün umschalten <img src='../../images/ear.svg' width='30' height='30'> innerhalb des Forums, um auf Nachrichten zu hören.",
         "mustBeConfirmed": "Entschuldigung, Sie müssen auf den Link in Ihrer Aktivierungs-E-Mail klicken, bevor Sie sich bei Ihrem Konto anmelden können. Wir haben eine weitere E-Mail mit diesem Link gesendet. Wenn Sie Probleme beim Empfang dieser E-Mail haben, wenden Sie sich bitte an uns.",
         "signUp": "Anmelden",
         "orSignIn": "Oder melden Sie sich an.",
         "signAndPair": "Anmelden und koppeln",
         "completePairing": "Registrierung abschließen",
         "privacyPolicy": "Datenschutzrichtlinie",
         "wrongApp": "Leider unterstützt dieser Server den aktuellen Nachrichtenstil Ihrer App nicht. Bitte versuchen Sie einen anderen App-Typ, z. B. die Streaming-<a target='_blank' href='[STREAMINGAPPLINK]'>Browser-App</a>."
    },
	"hi": {
         "getPopupNotifications": "पॉपअप सूचनाएं प्राप्त करें:",
         "privateServerNote": "ध्यान दें: कृपया अपनी ऐप लॉगिन स्क्रीन में 'निजी सर्वर' को इस रूप में सेट करें:",
         "notLoggedIn": "<strong>पंजीकरण असफल</strong>। कृपया पुनः प्रयास करें।",
         "backHome": "संदेश होम",
         "openSetup": "ओपन सेटअप फोरम",
    	 "returnToApp": "ऐप्लिकेशन पर वापस लौटें",
         "appDeregistered": "आपका ऐप अब [server] से अपंजीकृत हो गया है। आपको केवल ईमेल सूचनाएं प्राप्त होंगी।",
         "appDeregisteredMulti": "आपका ऐप अब [server] से अपंजीकृत हो गया है। आपके पास [devices] डिवाइस अभी भी पंजीकृत हैं।",
         "deregister": "डीरजिस्टर",
         "deregisterFully": "अपंजीकरण (ई-मेल सूचनाओं का प्रयोग करें)",
         "appRegistered": "आपका ऐप अब ईमेल [email] के साथ [server] पर पंजीकृत है। यदि इस फोरम पर कोई समूह पासवर्ड है, तो भी आपको कान को हरे <img src='../../images/ear.svg' width='30' height='30'> संदेशों को सुनने के लिए मंच के भीतर।",
         "mustBeConfirmed": "क्षमा करें, आपको अपने खाते में लॉग इन करने से पहले अपने एक्टिवेशन ईमेल में लिंक पर क्लिक करना होगा। हमने इस लिंक के साथ एक और ईमेल भेजा है। यदि आपको यह ईमेल प्राप्त करने में समस्या हो रही है, तो कृपया संपर्क करें हम।",
         "signUp":  "साइन अप करें",
         "orSignIn": "या साइन इन करें।",
         "signAndPair": "साइन अप करें और जोड़ें",
         "completePairing": "कंपलीट रजिस्ट्रेशन",
         "privacyPolicy": "गोपनीयता नीति",
         "wrongApp": "क्षमा करें, यह सर्वर आपके ऐप की वर्तमान संदेश शैली का समर्थन नहीं करता है। कृपया किसी भिन्न प्रकार के ऐप का प्रयास करें जैसे कि स्ट्रीमिंग <a target='_blank' href='[STREAMINGAPPLINK]'>ब्राउज़र ऐप</a>।"
    },
	"in": {
         "getPopupNotifications": "Dapatkan pemberitahuan munculan:",
         "privateServerNote": "Catatan: Setel 'Server Pribadi' di layar masuk aplikasi Anda sebagai:",
         "notLoggedIn": "<strong>Pendaftaran Gagal</strong>. Silakan coba lagi.",
         "backHome": "Beranda Pesan",
         "openSetup": "Buka Forum Pengaturan",
    	 "returnToApp": "Kembali ke Aplikasi",
         "appDeregistered": "Aplikasi Anda sekarang dibatalkan pendaftarannya ke [server]. Anda hanya akan menerima pemberitahuan email.",
         "appDeregisteredMulti": "Aplikasi Anda sekarang dibatalkan pendaftarannya ke [server]. Anda memiliki perangkat [devices] yang masih terdaftar.",
         "deregister": "Membatalkan pendaftaran",
         "deregisterFully": "Batalkan pendaftaran (gunakan pemberitahuan surel)",
         "appRegistered": "Aplikasi Anda sekarang terdaftar ke [server] dengan email [email]. Jika ada kata sandi grup di forum ini, Anda mungkin masih perlu mengubah telinga menjadi hijau <img src='../../images/ear.svg' width='30' height='30'> di dalam forum untuk mendengarkan pesan.",
         "mustBeConfirmed": "Maaf, Anda harus mengeklik tautan di email aktivasi Anda sebelum dapat masuk ke akun Anda. Kami telah mengirim email lain dengan tautan ini. Jika Anda kesulitan menerima email ini, silakan hubungi kita.",
         "signUp": "Daftar",
         "orSignIn": "Atau masuk.",
         "signAndPair": "Daftar dan Pasangkan",
         "completePairing": "Selesaikan Pendaftaran",
         "privacyPolicy": "Kebijakan Privasi",
         "wrongApp": "Maaf, server ini tidak mendukung gaya pesan aplikasi Anda saat ini. Silakan coba jenis aplikasi lain misalnya <a target='_blank' href='[STREAMINGAPPLINK]'>aplikasi browser</a> streaming."
    },    
	"it": {
         "getPopupNotifications": "Ricevi notifiche popup:",
         "privateServerNote": "Nota: impostare il 'Server privato' nella schermata di accesso dell'app come:",
         "notLoggedIn": "<strong>Registrazione non riuscita</strong>. Riprova.",
         "backHome": "Messaggio a casa",
         "openSetup": "Apri forum di installazione",
    	 "returnToApp": "Torna all'app",
         "appDeregistered": "La tua app è stata annullata dalla registrazione su [server]. Riceverai solo notifiche email.",
         "appDeregisteredMulti": "La tua app è ora annullata dalla registrazione su [server]. Hai [devices] dispositivi ancora registrati.",
         "deregister": "Annulla registrazione",
         "deregisterFully": "Annulla registrazione (usa le notifiche email)",
         "appRegistered": "La tua app è ora registrata su [server] con l'e-mail [email]. Se c'è una password di gruppo su questo forum potresti comunque dover impostare l'orecchio sul verde <img src='../../images/ear.svg' width='30' height='30'> all'interno del forum per ascoltare i messaggi.",
         "mustBeConfirmed": "Spiacenti, dovrai fare clic sul collegamento nell'e-mail di attivazione prima di poter accedere al tuo account. Abbiamo inviato un'altra e-mail con questo collegamento. Se hai problemi a ricevere questa e-mail, ti preghiamo di metterti in contatto con noi.",
         "signUp": "Iscriviti",
         "orSignIn": "Oppure accedi.",
         "signAndPair": "Registrati e abbina",
         "completePairing": "Registrazione completa",
         "privacyPolicy": "Informativa sulla privacy",
         "wrongApp": "Spiacente, questo server non supporta l'attuale stile dei messaggi della tua app. Prova un tipo diverso di app, ad esempio l'<a target='_blank' href='[STREAMINGAPPLINK]'>app per browser</a> in streaming."
    },
	"jp": {
         "getPopupNotifications": "ポップアップ通知を取得:",
         "privateServerNote": "注: アプリのログイン画面で「プライベート サーバー」を次のように設定してください:",
         "notLoggedIn": "<strong>登録に失敗しました</strong>。もう一度お試しください。",
         "backHome": "メッセージング ホーム",
         "openSetup": "セットアップ フォーラムを開く",
    	 "returnToApp": "アプリに戻る",
         "appDeregistered": "あなたのアプリは [server] から登録解除されました。メール通知のみを受け取ります。",
         "appDeregisteredMulti": "あなたのアプリは [server] から登録解除されました。まだ [devices] 個のデバイスが登録されています。",
         "deregister": "登録解除",
         "deregisterFully": "登録解除 (メール通知を使用)",
         "appRegistered": "あなたのアプリはメール [email] で [server] に登録されました。このフォーラムにグループ パスワードがある場合は、耳を緑に切り替える必要があるかもしれません <img src='../../images/ear.svg' width='30' height='30'> フォーラム内でメッセージをリッスンします。",
         "mustBeConfirmed": "申し訳ありませんが、アカウントにログインするには、アクティベーション メールのリンクをクリックする必要があります。このリンクを含む別のメールを送信しました。このメールの受信に問題がある場合は、 私たち。",
         "signUp": "サインアップ",
         "orSignIn": "またはサインインします。",
         "signAndPair": "サインアップしてペアリング",
         "completePairing": "登録完了",
         "privacyPolicy": "プライバシーポリシー",
         "wrongApp": "申し訳ありませんが、このサーバーはアプリの現在のメッセージ スタイルをサポートしていません。ストリーミング <a target='_blank' href='[STREAMINGAPPLINK]'>ブラウザ アプリ</a>など、別の種類のアプリを試してください。"
    },
	"pt": {
         "getPopupNotifications": "Obter notificações pop-up:",
         "privateServerNote": "Observação: defina o 'Private Server' na tela de login do aplicativo como:",
         "notLoggedIn": "<strong>Registro malsucedido</strong>. Tente novamente.",
         "backHome": "Página inicial de mensagens",
         "openSetup": "Abrir Fórum de Configuração",
    	 "returnToApp": "Retornar ao aplicativo",
         "appDeregistered": "Seu aplicativo agora tem o registro cancelado para [server]. Você receberá apenas notificações por e-mail.",
         "appDeregisteredMulti": "Seu aplicativo agora tem o registro cancelado para [server]. Você tem [devices] dispositivos ainda registrados.",
         "deregister": "Cancelar registro",
         "deregisterFully": "Cancelar registro (usar notificações por e-mail)",
         "appRegistered": "Seu aplicativo agora está registrado no [server] com o e-mail [email]. Se houver uma senha de grupo neste fórum, talvez seja necessário alternar a orelha para verde <img src='../../images/ear.svg' width='30' height='30'> dentro do fórum para ouvir as mensagens.",
         "mustBeConfirmed": "Desculpe, você precisará clicar no link em seu e-mail de ativação antes de poder fazer login em sua conta. Enviamos outro e-mail com este link. Se você estiver tendo problemas para receber este e-mail, entre em contato com nós.",
         "signUp": "Registar-se",
         "orSignIn": "Ou entre.",
         "signAndPair": "Inscreva-se e pareie",
         "completePairing": "Registro completo",
         "privacyPolicy": "Política de Privacidade",
         "wrongApp": "Desculpe, este servidor não suporta o estilo de mensagens atual do seu aplicativo. Tente um tipo diferente de aplicativo, por exemplo, o <a target='_blank' href='[STREAMINGAPPLINK]'>aplicativo de navegador de streaming</a>."
    },
	"pu": {
         "getPopupNotifications": "ਪੌਪਅੱਪ ਸੂਚਨਾਵਾਂ ਪ੍ਰਾਪਤ ਕਰੋ:",
         "privateServerNote": "ਨੋਟ: ਕਿਰਪਾ ਕਰਕੇ ਆਪਣੀ ਐਪ ਲਾਗਇਨ ਸਕ੍ਰੀਨ ਵਿੱਚ 'ਪ੍ਰਾਈਵੇਟ ਸਰਵਰ' ਨੂੰ ਇਸ ਤਰ੍ਹਾਂ ਸੈਟ ਕਰੋ:",
         "notLoggedIn": "<strong>ਰਜਿਸਟ੍ਰੇਸ਼ਨ ਅਸਫਲ</strong>। ਕਿਰਪਾ ਕਰਕੇ ਦੁਬਾਰਾ ਕੋਸ਼ਿਸ਼ ਕਰੋ।",
         "backHome": "ਸੁਨੇਹਾ ਘਰ",
         "openSetup": "ਸੈਟਅੱਪ ਫੋਰਮ ਖੋਲ੍ਹੋ",
    	 "returnToApp": "ਐਪ 'ਤੇ ਵਾਪਸ ਜਾਓ",
         "appDeregistered": "ਤੁਹਾਡੀ ਐਪ ਹੁਣ [server] ਤੋਂ ਰਜਿਸਟਰਡ ਹੋ ਗਈ ਹੈ। ਤੁਸੀਂ ਸਿਰਫ਼ ਈਮੇਲ ਸੂਚਨਾਵਾਂ ਪ੍ਰਾਪਤ ਕਰੋਗੇ।",
         "appDeregisteredMulti": "ਤੁਹਾਡੀ ਐਪ ਹੁਣ [server] ਤੋਂ ਰਜਿਸਟਰਡ ਹੋ ਗਈ ਹੈ। ਤੁਹਾਡੇ ਕੋਲ [devices] ਡਿਵਾਈਸ ਅਜੇ ਵੀ ਰਜਿਸਟਰ ਹਨ।",
         "deregister": "ਡਿਰਜਿਸਟਰ",
         "deregisterFully": "ਡਿਰਜਿਸਟਰ (ਈਮੇਲ ਸੂਚਨਾਵਾਂ ਦੀ ਵਰਤੋਂ ਕਰੋ)",
         "appRegistered": "ਤੁਹਾਡੀ ਐਪ ਹੁਣ [server] ਈ-ਮੇਲ [email] ਨਾਲ ਰਜਿਸਟਰ ਕੀਤੀ ਗਈ ਹੈ। ਜੇਕਰ ਇਸ ਫੋਰਮ 'ਤੇ ਕੋਈ ਗਰੁੱਪ ਪਾਸਵਰਡ ਹੈ ਤਾਂ ਤੁਹਾਨੂੰ ਅਜੇ ਵੀ ਕੰਨ ਨੂੰ ਹਰੇ <img src='../../images/ear.svg' width='30' height='30'> ਸੁਨੇਹੇ ਸੁਣਨ ਲਈ ਫੋਰਮ ਦੇ ਅੰਦਰ।",
         "mustBeConfirmed": "ਮਾਫ਼ ਕਰਨਾ, ਇਸ ਤੋਂ ਪਹਿਲਾਂ ਕਿ ਤੁਸੀਂ ਆਪਣੇ ਖਾਤੇ ਵਿੱਚ ਲਾਗਇਨ ਕਰ ਸਕੋ, ਤੁਹਾਨੂੰ ਆਪਣੀ ਐਕਟੀਵੇਸ਼ਨ ਈਮੇਲ ਵਿੱਚ ਦਿੱਤੇ ਲਿੰਕ 'ਤੇ ਕਲਿੱਕ ਕਰਨ ਦੀ ਲੋੜ ਪਵੇਗੀ। ਅਸੀਂ ਇਸ ਲਿੰਕ ਦੇ ਨਾਲ ਇੱਕ ਹੋਰ ਈਮੇਲ ਭੇਜੀ ਹੈ। ਜੇਕਰ ਤੁਹਾਨੂੰ ਇਹ ਈਮੇਲ ਪ੍ਰਾਪਤ ਕਰਨ ਵਿੱਚ ਮੁਸ਼ਕਲ ਆ ਰਹੀ ਹੈ, ਤਾਂ ਕਿਰਪਾ ਕਰਕੇ ਨਾਲ ਸੰਪਰਕ ਕਰੋ। ਸਾਨੂੰ.",
         "signUp": "ਸਾਈਨ ਅੱਪ",
         "orSignIn": "ਜਾਂ ਸਾਈਨ ਇਨ ਕਰੋ।",
         "signAndPair": "ਸਾਈਨ ਅੱਪ ਕਰੋ ਅਤੇ ਜੋੜਾ",
         "completePairing": "ਸੰਪੂਰਨ ਰਜਿਸਟ੍ਰੇਸ਼ਨ",
         "privacyPolicy": "ਗੋਪਨੀਯਤਾ ਨੀਤੀ",
         "wrongApp": "ਮਾਫ਼ ਕਰਨਾ ਇਹ ਸਰਵਰ ਤੁਹਾਡੀ ਐਪ ਦੀ ਮੌਜੂਦਾ ਸੰਦੇਸ਼ ਸ਼ੈਲੀ ਦਾ ਸਮਰਥਨ ਨਹੀਂ ਕਰਦਾ ਹੈ। ਕਿਰਪਾ ਕਰਕੇ ਇੱਕ ਵੱਖਰੀ ਕਿਸਮ ਦੀ ਐਪ ਦੀ ਕੋਸ਼ਿਸ਼ ਕਰੋ ਜਿਵੇਂ ਕਿ ਸਟ੍ਰੀਮਿੰਗ <a target='_blank' href='[STREAMINGAPPLINK]'>ਬ੍ਰਾਊਜ਼ਰ ਐਪ</a>।"
    },
	"ru": {
         "getPopupNotifications": "Получать всплывающие уведомления:",
         "privateServerNote": "Примечание. Установите \"Частный сервер\" на экране входа в приложение как:",
         "notLoggedIn": "<strong>Ошибка регистрации</strong>. Повторите попытку.",
         "backHome": "Главная страница обмена сообщениями",
         "openSetup": "Открыть форум по установке",
    	 "returnToApp": "Вернуться в приложение",
         "appDeregistered": "Ваше приложение удалено из регистрации на [server]. Вы будете получать только уведомления по электронной почте.",
         "appDeregisteredMulti": "Ваше приложение удалено из регистрации на [server]. У вас все еще есть зарегистрированные устройства [devices].",
         "deregister": "Отменить регистрацию",
         "deregisterFully": "Отменить регистрацию (использовать уведомления по электронной почте)",
         "appRegistered": "Ваше приложение теперь зарегистрировано на [server] с электронной почтой [email]. Если на этом форуме есть групповой пароль, вам все равно может потребоваться переключить ухо на зеленый <img src='../../images/ear.svg' width='30' height='30'> внутри форума для прослушивания сообщений.",
         "mustBeConfirmed": "Извините, вам нужно будет щелкнуть ссылку в письме активации, прежде чем вы сможете войти в свою учетную запись. Мы отправили еще одно письмо с этой ссылкой. Если у вас возникли проблемы с получением этого письма, свяжитесь с нас.",
         "signUp": "Зарегистрироваться",
         "orSignIn": "Или войдите в систему.",
         "signAndPair": "Зарегистрируйтесь и создайте пару",
         "completePairing": "Завершить регистрацию",
         "privacyPolicy": "Политика конфиденциальности",
         "wrongApp": "К сожалению, этот сервер не поддерживает текущий стиль сообщений вашего приложения. Попробуйте другой тип приложения, например потоковое <a target='_blank' href='[STREAMINGAPPLINK]'>браузерное приложение</a>."
    },        
	"ko": {
         "getPopupNotifications": "팝업 알림 받기:",
         "privateServerNote": "참고: 앱 로그인 화면에서 '비공개 서버'를 다음과 같이 설정하세요:",
         "notLoggedIn": "<strong>등록 실패</strong>. 다시 시도하십시오.",
         "backHome": "메시징 홈",
         "openSetup": "설정 포럼 열기",
    	 "returnToApp": "앱으로 돌아가기",
         "appDeregistered": "이제 앱이 [server]에서 등록 취소되었습니다. 이메일 알림만 받게 됩니다.",
         "appDeregisteredMulti": "이제 앱이 [server]에 등록 취소되었습니다. [devices] 기기가 아직 등록되어 있습니다.",
         "deregister": "등록 취소",
         "deregisterFully": "등록 취소(이메일 알림 사용)",
         "appRegistered": "이제 앱이 [email] 이메일로 [server]에 등록되었습니다. 이 포럼에 그룹 비밀번호가 있는 경우 귀를 녹색으로 전환해야 할 수도 있습니다 <img src='../../images/ear.svg' width='30' height='30'> 포럼 내에서 메시지를 들을 수 있습니다.",
         "mustBeConfirmed": "죄송합니다. 계정에 로그인하려면 활성화 이메일에 있는 링크를 클릭해야 합니다. 이 링크가 포함된 다른 이메일을 보냈습니다. 이 이메일을 받는 데 문제가 있으면 다음으로 연락하십시오. 우리를.",
         "signUp": "가입하기",
         "orSignIn": "또는 로그인하세요.",
         "signAndPair": "가입 및 페어링",
         "completePairing": "등록 완료",
         "privacyPolicy": "개인정보 보호정책",
         "wrongApp": "죄송합니다. 이 서버는 앱의 현재 메시지 스타일을 지원하지 않습니다. 스트리밍 <a target='_blank' href='[STREAMINGAPPLINK]'>브라우저 앱</a>과 같은 다른 유형의 앱을 사용해 보십시오."
    },
 	"bg": {
         "getPopupNotifications": "পপআপ বিজ্ঞপ্তি পান:",
         "privateServerNote": "দ্রষ্টব্য: অনুগ্রহ করে আপনার অ্যাপ লগইন স্ক্রিনে 'প্রাইভেট সার্ভার' এইভাবে সেট করুন:",
         "notLoggedIn": "<strong>নিবন্ধন অসফল</strong>। অনুগ্রহ করে আবার চেষ্টা করুন।",
         "backHome": "মেসেজিং হোম",
         "openSetup": "সেটআপ ফোরাম খুলুন",
    	 "returnToApp": "অ্যাপে ফিরে যান",
         "appDeregistered": "আপনার অ্যাপটি এখন [server]-এ নিবন্ধনমুক্ত করা হয়েছে। আপনি শুধুমাত্র ইমেল বিজ্ঞপ্তি পাবেন।",
         "appDeregisteredMulti": "আপনার অ্যাপটি এখন [server]-এ নিবন্ধনমুক্ত করা হয়েছে। আপনার [devices] ডিভাইসগুলি এখনও নিবন্ধিত আছে।",
         "deregister": "ডিরেজিস্টার",
         "deregisterFully": "ডিরেজিস্টার (ইমেল বিজ্ঞপ্তি ব্যবহার করুন)",
         "appRegistered": "আপনার অ্যাপটি এখন [server] ইমেল [email] সহ নিবন্ধিত হয়েছে৷ যদি এই ফোরামে একটি গ্রুপ পাসওয়ার্ড থাকে তবে আপনাকে এখনও কানটিকে সবুজ <img src='../../images/ear.svg' width='30' height='30'> বার্তা শোনার জন্য ফোরামের মধ্যে।",
         "mustBeConfirmed": "দুঃখিত, আপনার অ্যাকাউন্টে লগ ইন করার আগে আপনাকে আপনার অ্যাক্টিভেশন ইমেলের লিঙ্কটিতে ক্লিক করতে হবে। আমরা এই লিঙ্কটির সাথে আরেকটি ইমেল পাঠিয়েছি। যদি আপনার এই ইমেলটি পেতে সমস্যা হয়, তাহলে অনুগ্রহ করে এর সাথে যোগাযোগ করুন আমাদের.",
         "signUp": "সাইন আপ",
         "orSignIn": "বা সাইন ইন করুন।",
         "signAndPair": "সাইন আপ করুন এবং পেয়ার করুন",
         "completePairing": "সম্পূর্ণ নিবন্ধন",
         "privacyPolicy": "গোপনীয়তা নীতি",
         "wrongApp": "দুঃখিত এই সার্ভারটি আপনার অ্যাপের বর্তমান মেসেজ স্টাইল সমর্থন করে না। অনুগ্রহ করে একটি ভিন্ন ধরনের অ্যাপ চেষ্টা করুন যেমন স্ট্রিমিং <a target='_blank' href='[STREAMINGAPPLINK]'>ব্রাউজার অ্যাপ</a>।"
    }
 }       
}
