{
    "phpPath": "/usr/bin/php",
    "storeInDb": false,
    "staging": true,
    "serverPath": "/var/www/html/vendor/atomjump/loop-server/",
    "forums": [
        {
            "aj": "default",
            "timeframe": 60,
            "message": "Tip 1: To be notified of new messages on this forum after you leave, either via email or the AtomJump app, tap the 'ear' icon. You can tap it again to stop listening at any time. Tip 2: To change your name, tap the 'Settings' cogs in the bottom left corner.",
            "helperName": "AtomJump Appliance",
            "helperEmail": "yourname@yourcompany.com",
            "comeBackWithin": 86400
        }
    ]


}
